…
```r
cor(num_dataset) %>% # calculate correlations using Pearson
  as.data.frame() %>%
  mutate(var1 = rownames(.)) %>%
  gather(var2, value, -var1) %>%
  arrange(desc(value)) %>% 
  group_by(value) %>% 
  filter(row_number()==1) %>%
  filter(var1 == "SalePrice")
```

```
## # A tibble: 33 x 3
## # Groups:   value [33]
##    var1      var2         value
##    <chr>     <chr>        <dbl>
##  1 SalePrice OverallQual  0.791
##  2 SalePrice GrLivArea    0.709
##  3 SalePrice GarageCars   0.640
##  4 SalePrice GarageArea   0.623
##  5 SalePrice TotalBsmtSF  0.614
##  6 SalePrice 1stFlrSF     0.606
##  7 SalePrice FullBath     0.561
##  8 SalePrice TotRmsAbvGrd 0.534
##  9 SalePrice YearBuilt    0.523
## 10 SalePrice YearRemodAdd 0.507
## # … with 23 more rows
```
…
